\relax 
\providecommand\hyper@newdestlabel[2]{}
\providecommand\babel@aux[2]{}
\@nameuse{bbl@beforestart}
\providecommand\HyperFirstAtBeginDocument{\AtBeginDocument}
\HyperFirstAtBeginDocument{\ifx\hyper@anchor\@undefined
\global\let\oldcontentsline\contentsline
\gdef\contentsline#1#2#3#4{\oldcontentsline{#1}{#2}{#3}}
\global\let\oldnewlabel\newlabel
\gdef\newlabel#1#2{\newlabelxx{#1}#2}
\gdef\newlabelxx#1#2#3#4#5#6{\oldnewlabel{#1}{{#2}{#3}}}
\AtEndDocument{\ifx\hyper@anchor\@undefined
\let\contentsline\oldcontentsline
\let\newlabel\oldnewlabel
\fi}
\fi}
\global\let\hyper@last\relax 
\gdef\HyperFirstAtBeginDocument#1{#1}
\providecommand\HyField@AuxAddToFields[1]{}
\providecommand\HyField@AuxAddToCoFields[2]{}
\babel@aux{english}{}
\@writefile{toc}{\contentsline {section}{\numberline {1}Executive Summary}{1}{section.1}\protected@file@percent }
\@writefile{toc}{\contentsline {section}{\numberline {2}Introduction}{1}{section.2}\protected@file@percent }
\@writefile{toc}{\contentsline {section}{\numberline {3}Methodology}{2}{section.3}\protected@file@percent }
\@writefile{toc}{\contentsline {subsection}{\numberline {3.1}Questionnaire}{2}{subsection.3.1}\protected@file@percent }
\@writefile{toc}{\contentsline {subsection}{\numberline {3.2}Participants}{3}{subsection.3.2}\protected@file@percent }
\@writefile{toc}{\contentsline {section}{\numberline {4}Results}{3}{section.4}\protected@file@percent }
\@writefile{toc}{\contentsline {subsection}{\numberline {4.1}Interest in OS practices}{3}{subsection.4.1}\protected@file@percent }
\@writefile{lof}{\contentsline {figure}{\numberline {1}{\ignorespaces Degree of agreement to the statement: `I would like to learn more about\ldots  {}' followed by the listed OS practices. 90 participants answered this question.\relax }}{4}{figure.caption.1}\protected@file@percent }
\@writefile{lot}{\contentsline {table}{\numberline {1}{\ignorespaces Number of participants (overall and per department) thinking that the corresponding obstacle prevents them from doing OS, ordered by occurrence\relax }}{5}{table.caption.2}\protected@file@percent }
\providecommand*\caption@xref[2]{\@setref\relax\@undefined{#1}}
\newlabel{table:1}{{1}{5}{Number of participants (overall and per department) thinking that the corresponding obstacle prevents them from doing OS, ordered by occurrence\relax }{table.caption.2}{}}
\@writefile{toc}{\contentsline {subsection}{\numberline {4.2}Obstacles preventing ITC researchers from doing OS}{5}{subsection.4.2}\protected@file@percent }
\@writefile{lot}{\contentsline {table}{\numberline {2}{\ignorespaces Number of participants (overall and per department) thinking that they need OS support during the corresponding stage of the research process.\relax }}{9}{table.caption.3}\protected@file@percent }
\newlabel{table:2}{{2}{9}{Number of participants (overall and per department) thinking that they need OS support during the corresponding stage of the research process.\relax }{table.caption.3}{}}
\@writefile{toc}{\contentsline {subsection}{\numberline {4.3}OS Support during the research cycle}{9}{subsection.4.3}\protected@file@percent }
\@writefile{toc}{\contentsline {section}{\numberline {5}Discussion}{10}{section.5}\protected@file@percent }
\@writefile{toc}{\contentsline {subsection}{\numberline {5.1}Interest in OS practices}{10}{subsection.5.1}\protected@file@percent }
\@writefile{toc}{\contentsline {subsection}{\numberline {5.2}Obstacles preventing OS}{11}{subsection.5.2}\protected@file@percent }
\@writefile{toc}{\contentsline {subsection}{\numberline {5.3}OS Support in the research cycle}{12}{subsection.5.3}\protected@file@percent }
\@writefile{toc}{\contentsline {section}{\numberline {6}Conclusion}{12}{section.6}\protected@file@percent }
\bibstyle{copernicus}
\bibdata{sample.bib}
\newlabel{LastPage}{{}{13}{}{}{}}
\gdef \@abspage@last{13}
